^C:\Users\Atul10395\Desktop\ProjectForest-letter-water-added-final\ProjectForest\ProjectForest.vcxproj
C:\Users\Atul10395\Desktop\ProjectForest-letter-water-added-final\x64\Debug\ProjectForest.lib
C:\Users\Atul10395\Desktop\ProjectForest-letter-water-added-final\x64\Debug\ProjectForest.exp
^F:\ProjectForest-letter-water-added-final\ProjectForest\ProjectForest.vcxproj
F:\ProjectForest-letter-water-added-final\x64\Debug\ProjectForest.lib
F:\ProjectForest-letter-water-added-final\x64\Debug\ProjectForest.exp
^D:\Data\Real Time Rendering\FinalDemo\ProjectForest-letter-water-added-final\ProjectForest\ProjectForest.vcxproj
D:\Data\Real Time Rendering\FinalDemo\ProjectForest-letter-water-added-final\x64\Debug\ProjectForest.lib
D:\Data\Real Time Rendering\FinalDemo\ProjectForest-letter-water-added-final\x64\Debug\ProjectForest.exp
^D:\Data\Real Time Rendering\FinalDemo\ProjectForest-letter-water-added-final\ProjectForest\ProjectForest.vcxproj
D:\Data\Real Time Rendering\FinalDemo\ProjectForest-letter-water-added-final\x64\Debug\ProjectForest.lib
D:\Data\Real Time Rendering\FinalDemo\ProjectForest-letter-water-added-final\x64\Debug\ProjectForest.exp
^D:\Data\Real Time Rendering\FinalDemo\ProjectForest\ProjectForest\ProjectForest.vcxproj
D:\Data\Real Time Rendering\FinalDemo\ProjectForest\x64\Debug\ProjectForest.lib
D:\Data\Real Time Rendering\FinalDemo\ProjectForest\x64\Debug\ProjectForest.exp
